,,,,,
,,,,,
,Gastos generados por los viajes de la Presidencia y las personas titulares de las consejerías durante el ejercicio 2018,,,,
,,,,,
,,"Posición presupuestaria
G/***/23000/00",,"Posición presupuestaria
G/***/23100/00",
,Presidencia / Consejerías,Manutención ,Alojamiento ,Locomoción ,Total 
,Presidencia de la Junta de Andalucía,"0,00","4.871,37","6.438,33","11.309,70"
,"Presidencia, Administración Local y Memoria Democrática","0,00","534,43","971,26","1.505,69"
,"Economía, Hacienda y Administración Pública (denominacón a partir de 6/6/2018)","0,00","1.402,50    ","1.827,64","3.230,14"
,Hacienda y Administración Pública (denominación hasta 6/6/2018),"0,00","225,72    ","594,86","820,58"
,"Conocimiento, Investigación y Universidad (denominación a partir del 6/6/2018)","0,00","351,00    ","1.267,78","1.618,78"
,Economía y Conocimiento (denominación hasta 6/6/2018),"0,00","908,33    ","2.351,83","3.260,16"
,Educación,"119,09","2.947,27    ","3.059,68","6.126,04"
,Salud ,"1.239,38    ","921,13    ","2.532,08","4.692,59"
,Igualdad y Políticas Sociales,"0,00","0,00","0,00","0,00"
,Justicia e Interior,"177,24    ","1.888,79    ","5.046,99","7.113,02"
,"Empleo, Empresa y Comercio","941,26","153,00    ","854,28","1.948,54"
,Fomento y Vivienda,"0,00","431,95    ","2.230,08","2.662,03"
,Turismo y Deporte,"2.249,60    ","64,27    ","1.251,81","3.565,68"
,Cultura,"285,74","2.583,79    ","4.532,78","7.402,31"
,"Agricultura, Pesca y Desarrollo Rural","0,00","3.663,75    ","10.355,50","14.019,25"
,Medio Ambiente y Ordenación del Territorio,"8,60","1.296,27    ","4.380,30","5.685,17"
,,,,Total ,"74.959,68    "
,,,,,
,Fuente: SGTs de las distintas consejerías,,,,
,*** El programa presupuestario es distinto en cada Consejería,,,,
